[gd_scene load_steps=3 format=2]

[ext_resource path="res://icon.png" type="Texture" id=1]

[sub_resource type="RectangleShape2D" id=1]

custom_solver_bias = 0.0
extents = Vector2( 30.587, 28.8926 )

[node name="RigidBody2D" type="RigidBody2D" index="0"]

position = Vector2( 139.413, 78.8926 )
input_pickable = false
collision_layer = 1
collision_mask = 1
mode = 0
mass = 1.0
friction = 1.0
bounce = 0.0
gravity_scale = 1.0
custom_integrator = false
continuous_cd = 0
contacts_reported = 0
contact_monitor = false
sleeping = false
can_sleep = true
linear_velocity = Vector2( 0, 0 )
linear_damp = -1.0
angular_velocity = 0.0
angular_damp = -1.0

[node name="Sprite" type="Sprite" parent="." index="0"]

texture = ExtResource( 1 )

[node name="CollisionShape2D" type="CollisionShape2D" parent="." index="1"]

shape = SubResource( 1 )


